Linux Backup, Archive & Compression Utilities:
==============================================

Why Need Archive & Compression:
-------------------------------
১। ফাইল/ডিরেক্টরির সাইজ ছোট করার জন্য। (Compression)
২। অনেকগুলা ফাইল/ডিরেক্টরিকে একত্রে বা একটি ফাইলে রুপান্তর করার জন্য। 
৩। ফাইল সিকিউরিটি দেওয়ার জন্য (Password, Malware attack, missing) 
৪। ডেটা ব্যাকআপ  (Archive) বা অনেক ডেটা এক জায়গা থেকে অন্য জায়গায় পাঠানোর জন্য। 
৫। ডেটা এনক্রিপশন এবং পাসওয়ার্ড প্রটেক্টেড করার জন্য। 
৬। ইমেইল এটাস্টমেন্ট হিসেবে ব্যবহার করার জন্য। 

 Archive Utility: 
 ----------------
 ডেটা আর্কাইভ করলে কোনো স্পেস কমবে না। তবে, বিভিন্ন মেটা ডাটার (inode, name, security, block) জন্য কিছু স্পেস কমতে পারে। আর্কাইভের এক্সটেনশন সাধারণত '.tar' ফরম্যাটে হয়ে থাকে অর্থাৎ ফাইলের নামের শেষে '.tar' থাকবে। উদাহরণঃ 

* Archive.tar

Compression/Archive Utilities:
------------------------------ 
* Windows: zip, rar, 7zip
* linux: .gz, .bz2, .xz  optional (.zip, .rar) 

 Archive + Compression:
 ---------------------
 * Backup.tar.gz
 * Backup.tar.bz2
 * Backup.tar.xz

Compression Ratio:
-----------------
* Main File: 30MB
* Archive(tar): 30MB 
* Compression: .gz(7MB), .bz2(6MB), .xz(4MB)

Working Directory:
-----------------
[root@node1 ~]# mkdir /linux21/day19 -p
[root@node1 ~]# cd /linux21/day19
[root@node1 day19]# cp -rv /etc .        ; /etc ডিরেক্টরিকে কপি করে বর্তমান ডিরেক্টরি '~/linux21/day19' এর মধ্যে নিয়ে আসা হয়েছে। 
[root@node1 day19]# ls
[root@node1 day19]# du -sh etc           ; 'etc' ডিরেক্টরির সাইজ দেখা যাচ্ছে 30MB 
 30M  etc

Archive (tar):
=============
আমরা 'tar' কমান্ড ব্যবহার করে আর্কাইভ এবং কম্প্রেশন উভয় কাজই করতে পারি এবং এটার প্যাকেজ (RPM) 'tar' সিস্টেমে ডিফল্ট ভাবে ইন্সটল থাকে। 

'tar' কমান্ডের সাথে যে সকল অপশন ব্যবহার করা যাবেঃ 
------------------------------------------
 -c = Create
 -x = extract 
 -t = list
 -v = verbose
 -f = files 
 -z = gzip
 -j = bzip2
 -J = xz
 -C = change 

[root@node1 day9]# tar -cvf etcarchive.tar  etc  
[root@node1 day9]# ls
[root@node1 day9]# du -sh *
 30M   etc
 27M   etcarchive.tar

নোটঃ আর্কাইভ করার পরে আমরা 'ls' কমান্ড দিয়ে দেখলাম 'etcarchive.tar' নামে লাল রঙয়ের একটা (tar) ফাইল তৈরি হয়েছে।
যেটার সাইজ '27 MB' অর্থাৎ  মূল ফাইল 'etc' ডিরেক্টরি থেকে মেটাডাটার (inode, name, security, block) জন্য কিছু স্পেস কম হয়েছে। 

Multiple File Archive to single File:
-------------------------------------
[root@node1 day19]# touch file1 file2 file3
[root@node1 day19]# tar -cvf files.tar file1 file2 file3     ; একাধিক ফাইলকে আর্কাইভ করে একটি ফাইলে রুপান্তর করার জন্য। 
[root@node1 day19]# tar -tvf files.tar                       ; আর্কাইভের মধ্যে কি আছে সেট দেখার জন্য '-t' অপশন। 
 
Arcive extract:
--------------- 
আর্কাইভ থেকে ফাইল এক্সট্রাক্ট (extract) করার জন্য, প্রথমে মূল ডিরেক্টরি '/etc' রিমুভ করে নেওয়া হবে। 

[root@node1 day19]# rm -rf etc
[root@node1 day19]# ls

[root@node1 day19]# tar -xvf etcarchive.tar 
[root@node1 day19]# ll

Archive + Compress:
-------------------
আমরা তিন (০৩) পদ্ধতিতে আর্কাইভ সাথে কম্প্রেসড করতে পারি। 

* Gzip  (backup.tar.gz)  - এক্ষেত্রে 'tar' কমান্ডের সাথে '-z' অপশন যোগ করতে হবে।  
* Bzip2 (backup.tar.bz2) - এক্ষেত্রে 'tar' কমান্ডের সাথে  '-j' অপশন যোগ করতে হবে।  
* XZ    (backup.tar.xz)	  -  এক্ষেত্রে 'tar' কমান্ডের সাথে  '-J' অপশন যোগ করতে হবে।  

Archive + Gzip compress:
----------------------
[root@node1 day19]# tar -czvf backup.tar.gz etc
[root@node1 day19]# ll

Archive + Bzip2 compress:
-------------------------
[root@node1 day19]# tar -cjvf backup.tar.bz2 etc
[root@node1 day19]# ll

Archive + XZ compress:
----------------------
[root@node1 day19]# tar -cJvf backup.tar.xz etc
[root@node1 day19]# ll

[root@node1 day19]# du -sh *

29M	etc
27M	etcarchive.tar
4.6M	etcbackup.tar.bz2
6.0M	etcbackup.tar.gz
3.8M	etcbackup.tar.xz

 Extract:
---------
[root@node1 day19]# rm -rf etc
[root@node1 day19]# tar -xzvf etcbackup.tar.gz
[root@node1 day19]# ll
 
extract: (.bz2)
========
[root@node1 day19]# rm -rf etc
[root@node1 day19]# tar -xjvf etcbackup.tar.bz2
[root@node1 day19]# ls

extract: (.xz)
========
[root@node1 day19]# rm -rf etc
[root@node1 day19]# tar -xJvf etcbackup.tar.xz
[root@node1 day19]# ls

File Backup Local to Remote System:
-----------------------------------
* FTP Server 
* NFS Server 
* Samba (CIFS) Server 
* SCP (Secure Copy) - SFTP
* Rsync 

Secure Copy (scp) from server: (From Node1)
-------------------------------------------
আমরা চাইলে লিনাক্স সিস্টেম থেকে আরেক লিনাক্স সিস্টেমে ডেটা ট্রান্সফার করতে পারি। এক্ষেত্রে 'scp' কমান্ড ব্যবহার করতে হবে। ডেটা ট্রান্সফারের ক্ষেত্রে সিকিউর ফাইল ট্রান্সফার প্রটোকল SFTP (port 22) ব্যবহার করা হয়। 

 ; লোকাল সিস্টেম (node1) থেকে ফাইল রিমোট সিস্টেমে (node2) পাঠানোর জন্য নিচের কমান্ডঃ 

Secure Copy (scp) to node2:
---------------------------
[root@node1 day19]# scp backup.tar.gz student@172.25.11.Y:/tmp    ;(node2 সার্ভারে পাঠানো হয়ছে) 


; রিমোট সিস্টেম  (node2) থেকে ফাইল কপি করে লোকাল সিস্টেমে  (node1) নিয়ে আসা হয়েছে।  

[root@node1 day19]# scp student@172.25.11.Y:/etc/passwd  /linux21/day19  ; (node1)
[root@node1 day19]# ls

File Copy using Rsync:
----------------------
Here’s a shortlist of features rsync offers.

* Directory copying
* Easy backup configuration
* Can work over SSH
* Can run as daemon/server
* File permission retention

Rsync stands for the term RemoteSync. Despite the name, it can handle file synchronization remotely and locally. The term rsync is also used to refer to the rsync protocol that rsync uses for syncing.

Rsync Command structure:
------------------------
# rsync <options> <SRC> <DST> 

Rsync করার জন্য 'node2' সিস্টেম (CentOS 9) ব্যবহার করা হবে। 

[root@node2 ~]# yum install rsync -y

Rsync within Local System Directories:
--------------------------------------
[root@node2  ~]# mkdir /day19/backup -p
[root@node2  ~]# cd /day19/backup 
[root@node2 backup]# mkdir centos redhat
[root@node2 backup]# touch centos/file{1..3}
[root@node2 backup]# ls centos

[root@node2 backup]# rsync -av centos redhat      ; centos এর সাথে 'redhat' এর sync করা হল। 
[root@node2 backup]# ls redhat/centos
[root@node2 backup]# touch centos/file4
[root@node2 backup]# rsync -av centos redhat
[root@node2 backup]# ls redhat/centos

Rsync within Remote System Directories:
--------------------------------------
[root@node2 backup]# rsync -arv centos student@172.25.11.X:/tmp 

Optional (যদি আলাগা পোর্ট নাম্বার দিয়ে পাঠানো হয়)
----------------------------------------------
[root@node2 backup]# rsync -av --rsh='ssh -p 2222' centos student@172.25.11.X:/tmp

 a = archive
 v = verbose
 r = recursively

* Move to Remote Server:
------------------------
[root@node1 ~]# cd /tmp
[root@node1 tmp]# ls

Working with Linux Log Files:
=============================
বিভিন্ন ধরনের লগ ফাইল (Events & Messages) সিস্টেম, অ্যাপ্লিকেশন, ইউজার কর্তৃক তৈরি হয়ঃ 

* Kernel & Boot Log
* Application Log    (http, mail, samba, crond)
* User login info  (ssh, user login) 
* Audit Log

লগ ফাইল সমূহ 'cat, tail, less, grep, head কমান্ড দিয়ে দেখা যায়।  কিছু কিছু লগ ফাইল বাইনারী অবস্থায় থাকে, এক্ষেত্রে ফাইলে এনক্রিপ্টেড অবস্থায় থাকে। ফলে, ভিউ করা যায় না। সেক্ষেত্রে কমান্ড ব্যবহার করে ভিউ করতে হয়। 

* /var/log/messages: সিস্টেমের বুট এবং কার্নেল মেসেজ সম্পর্কিত লগ ফাইল জমা হয় এখানে। 
* /var/log/secure: 'SSH' সার্ভিসের সকল লগ জমা হয় এই ফাইলে। 
* /var/log/maillog: Mail সার্ভার সম্পর্কিত সকল লগ (incoming/outgoing) এখানে পাওয়া যায়। 
* /var/log/dmesg: ডিভাইস ড্রাইভার সম্পর্কিত সকল লগ এখানে জমা হয়। 
* /var/log/cron: Cronjobs সম্পর্কিত সকল লগ এখানে জমা হয়। 
* /var/log/dnf.log: লিনাক্স প্যাকেজ ম্যানেজমেন্ট সিস্টেম (YUM) এর লগ এখানে জমা হয়। 
* /var/log/boot.log: সিস্টেম বুটিং সম্পর্কিত সকল লগ জমা হয় এখানে। 

সিস্টমের সকল ডিভাইস ড্রাইভার সম্পর্কিত সকল লগ ফাইল ফাইল নিচের কমান্ড দিয়ে দেখা যাবেঃ

[root@node1 ~]# dmesg 
[root@node1 ~]# dmesg | grep scsi

To show all event messages, use:
--------------------------------
Systemd-journald saves the events and messages in a binary format that cannot be read with a text editor.

[root@node1 ~]# journalctl
[root@node1 ~]# journalctl -u sshd

System Kernel and Boot Log:
---------------------------
[root@node1 ~]# tail -f /var/log/messages

SSH Login Users Info:
---------------------
[root@node1 ~]# cat /var/log/secure

Using Tuned:
============
To maximize the end-to-end performance of services, applications and databases on a server, system administrators usually carry out custom performance tunning, using various tools, both generic operating system tools as well as third-party tools. One of the most useful performance tuning tools on CentOS/RHEL/Fedora Linux is Tuned.

[root@node2 ~]# yum install tuned -y   ; (CentOS Node) 

After the installation, you will find following important tuned configuration files.

* /etc/tuned – tuned configuration directory.
* /etc/tuned/tuned-main.conf– tuned main configuration file.
* /usr/lib/tuned/ – stores a sub-directory for all tuning profiles.

Now you can start or manage the tuned service using following commands.

[root@node2 ~]# systemctl start tuned	
[root@node2 ~]# systemctl enable tuned
[root@node2 ~]# systemctl status tuned

এখন 'tunde-adm' কমান্ড ব্যবহার করে 'tuned' প্রোফাইল ম্যানেজ করা যাবে। 

পুর্বে উল্লেখিত (Pre-defined) প্রোফাইল সমূহের লিস্ট দেখার জন্য নিচের কমান্ডঃ 
-------------------------------------------------------
[root@node2 ~]# tuned-adm list 

বর্তমানে একটিভ প্রোফাইল দেখার জন্য নিচের কমান্ডঃ 
-----------------------------------
[root@node2 ~]# tuned-adm active 
Current active profile: virtual-guest

প্রোফাইল পরিবর্তন করার জন্য নিচের কমান্ডঃ
-----------------------------
[root@node2 ~]# tuned-adm profile virtual-host
[root@node2 ~]# tuned-adm active 

ডিফল্ট প্রোফাইল লোড করার জন্য নিচের কমান্ডঃ
--------------------------------
[root@node2 ~]# tuned-adm recommend

প্রোফাইল বন্ধ রাখার জন্য নিচের কমান্ডঃ
--------------------------
[root@node2 ~]# tuned-adm off
[root@node2 ~]# tuned-adm active


=================== Thank you =====================











